What are boosted regression trees?
…
Fitting a BRT with gbm()

Data

## # A tibble: 2,000 x 3
##        x    Grp        y
##    <dbl> <fctr>    <dbl>
## 1   0.01      A 4.695773
## 2   0.01      B 3.988762
## 3   0.02      A 5.109820
## 4   0.02      B 3.896746
## 5   0.03      A 4.609181
## 6   0.03      B 3.475052
## 7   0.04      A 5.833630
## 8   0.04      B 3.980568
## 9   0.05      A 5.209733
## 10  0.05      B 4.237595
## # ... with 1,990 more rows
…
